Partner,Name,Fare,Status
zp@uberukr.com,Адамян,337.01,Active
zp@uberukr.com,Мажитов,-260.16,Active
zp@uberukr.com,Жуков,-79.52,Rejected
zp@uberukr.com,Суворов,-86.15,Rejected
zp@uberukr.com,Ключников,-46.59,Active
zp@uberukr.com,Головня,-67.62,Rejected
zp@uberukr.com,Чернышов,-3.06,Active
zp@uberukr.com,Терских,-205.86,Active
zp@uberukr.com,Кулешов,-521.16,Active
zp@uberukr.com,Шарипов,521.16,Active
zp@uberukr.com,Гопанюк,521.16,Active
zp@uberukr.com,Шукюров,-120.20,Active
zp@uberukr.com,Шоимов,-5.42,Active
zp@uberukr.com,Нурмаматов,5.42,Active
zp@uberukr.com,Джафаров,-324.27,Active
zp@uberukr.com,Шупиков,-183.66,Active
zp@uberukr.com,Алджанов,-197.94,Active
odessa@uberlin.com.ua,Умаров,337.01,Active
odessa@uberlin.com.ua,Башлыков,-260.16,Active
odessa@uberlin.com.ua,Терехов,-79.52,Active
odessa@uberlin.com.ua,Донченко,-86.15,Active
odessa@uberlin.com.ua,Ковалев,-46.59,Active
odessa@uberlin.com.ua,Адамян,-67.62,Active
odessa@uberlin.com.ua,Мажитов,-3.06,Active
odessa@uberlin.com.ua,Жуков,-205.86,Active
odessa@uberlin.com.ua,Суворов,-521.16,Rejected
odessa@uberlin.com.ua,Ключников,521.16,Active
odessa@uberlin.com.ua,Головня,521.16,Active
odessa@uberlin.com.ua,Чернышов,-120.20,Rejected
odessa@uberlin.com.ua,Терских,-5.42,Active
odessa@uberlin.com.ua,Кулешов,5.42,Active
odessa@uberlin.com.ua,Шарипов,-324.27,Rejected
odessa@uberlin.com.ua,Гопанюк,-183.66,Active
odessa@uberlin.com.ua,Шукюров,-197.94,Active
odessa@uberlin.com.ua,Шоимов,337.01,Active
odessa@uberlin.com.ua,Нурмаматов,-260.16,Active
odessa@uberlin.com.ua,Джафаров,-79.52,Rejected
odessa@uberlin.com.ua,Шупиков,-86.15,Rejected
odessa@uberlin.com.ua,Алджанов,-46.59,Active
odessa@uberlin.com.ua,Умаров,-67.62,Active
odessa@uberlin.com.ua,Башлыков,-3.06,Active
odessa@uberlin.com.ua,Терехов,-205.86,Rejected
odessa@uberlin.com.ua,Донченко,-521.16,Rejected
odessa@uberlin.com.ua,Ковалев,521.16,Rejected